%YAML 1.1
%TAG !u! tag:unity3d.com,2011:
--- !u!74 &7400000
AnimationClip:
  m_ObjectHideFlags: 0
  m_CorrespondingSourceObject: {fileID: 0}
  m_PrefabInstance: {fileID: 0}
  m_PrefabAsset: {fileID: 0}
  m_Name: Hurt
  serializedVersion: 6
  m_Legacy: 0
  m_Compressed: 0
  m_UseHighQualityCurve: 1
  m_RotationCurves: []
  m_CompressedRotationCurves: []
  m_EulerCurves: []
  m_PositionCurves: []
  m_ScaleCurves: []
  m_FloatCurves: []
  m_PPtrCurves:
  - curve:
    - time: 0
      value: {fileID: 21300000, guid: b73692bf4c549bd45a7a616444a490ef, type: 3}
    - time: 0.083333336
      value: {fileID: 21300000, guid: a197e7b7a08bf7741a792d11e2739c66, type: 3}
    - time: 0.16666667
      value: {fileID: 21300000, guid: 54364bb2bbf592a479d03ebd1600f782, type: 3}
    - time: 0.25
      value: {fileID: 21300000, guid: 3e962494b9794a843a042ce75d04e3b9, type: 3}
    - time: 0.33333334
      value: {fileID: 21300000, guid: 8a565be203d456d42805613a32c9ce7b, type: 3}
    - time: 0.41666666
      value: {fileID: 21300000, guid: 4bd794a9d8430944d988950f2fa4b0a1, type: 3}
    - time: 0.5
      value: {fileID: 21300000, guid: 061222444839ffb42b01ee846fd35055, type: 3}
    - time: 0.5833333
      value: {fileID: 21300000, guid: 2b2c77d55dc8b8641aaca901c9bf8cec, type: 3}
    - time: 0.6666667
      value: {fileID: 21300000, guid: b51bee18d7a9c6c49ad75ccd76852506, type: 3}
    - time: 0.75
      value: {fileID: 21300000, guid: 42c6054577d73d44183ddf0cb118af2f, type: 3}
    attribute: m_Sprite
    path: 
    classID: 212
    script: {fileID: 0}
  m_SampleRate: 12
  m_WrapMode: 0
  m_Bounds:
    m_Center: {x: 0, y: 0, z: 0}
    m_Extent: {x: 0, y: 0, z: 0}
  m_ClipBindingConstant:
    genericBindings:
    - serializedVersion: 2
      path: 0
      attribute: 0
      script: {fileID: 0}
      typeID: 212
      customType: 23
      isPPtrCurve: 1
    pptrCurveMapping:
    - {fileID: 21300000, guid: b73692bf4c549bd45a7a616444a490ef, type: 3}
    - {fileID: 21300000, guid: a197e7b7a08bf7741a792d11e2739c66, type: 3}
    - {fileID: 21300000, guid: 54364bb2bbf592a479d03ebd1600f782, type: 3}
    - {fileID: 21300000, guid: 3e962494b9794a843a042ce75d04e3b9, type: 3}
    - {fileID: 21300000, guid: 8a565be203d456d42805613a32c9ce7b, type: 3}
    - {fileID: 21300000, guid: 4bd794a9d8430944d988950f2fa4b0a1, type: 3}
    - {fileID: 21300000, guid: 061222444839ffb42b01ee846fd35055, type: 3}
    - {fileID: 21300000, guid: 2b2c77d55dc8b8641aaca901c9bf8cec, type: 3}
    - {fileID: 21300000, guid: b51bee18d7a9c6c49ad75ccd76852506, type: 3}
    - {fileID: 21300000, guid: 42c6054577d73d44183ddf0cb118af2f, type: 3}
  m_AnimationClipSettings:
    serializedVersion: 2
    m_AdditiveReferencePoseClip: {fileID: 0}
    m_AdditiveReferencePoseTime: 0
    m_StartTime: 0
    m_StopTime: 0.8333333
    m_OrientationOffsetY: 0
    m_Level: 0
    m_CycleOffset: 0
    m_HasAdditiveReferencePose: 0
    m_LoopTime: 0
    m_LoopBlend: 0
    m_LoopBlendOrientation: 0
    m_LoopBlendPositionY: 0
    m_LoopBlendPositionXZ: 0
    m_KeepOriginalOrientation: 0
    m_KeepOriginalPositionY: 1
    m_KeepOriginalPositionXZ: 0
    m_HeightFromFeet: 0
    m_Mirror: 0
  m_EditorCurves: []
  m_EulerEditorCurves: []
  m_HasGenericRootTransform: 0
  m_HasMotionFloatCurves: 0
  m_Events: []
