%YAML 1.1
%TAG !u! tag:unity3d.com,2011:
--- !u!74 &7400000
AnimationClip:
  m_ObjectHideFlags: 0
  m_CorrespondingSourceObject: {fileID: 0}
  m_PrefabInstance: {fileID: 0}
  m_PrefabAsset: {fileID: 0}
  m_Name: Shoot
  serializedVersion: 6
  m_Legacy: 0
  m_Compressed: 0
  m_UseHighQualityCurve: 1
  m_RotationCurves: []
  m_CompressedRotationCurves: []
  m_EulerCurves: []
  m_PositionCurves: []
  m_ScaleCurves: []
  m_FloatCurves: []
  m_PPtrCurves:
  - curve:
    - time: 0
      value: {fileID: 21300000, guid: 3994923cc5877a543aee7526eaf6490a, type: 3}
    - time: 0.083333336
      value: {fileID: 21300000, guid: 80839622e91793543b45f6abd956377e, type: 3}
    - time: 0.16666667
      value: {fileID: 21300000, guid: d9a1abbd73b76a040b19a4b159ad9a05, type: 3}
    - time: 0.25
      value: {fileID: 21300000, guid: 09870eb03f858414fa29da62b08c840a, type: 3}
    - time: 0.33333334
      value: {fileID: 21300000, guid: 9d740935d552d3c468535e94b8391452, type: 3}
    - time: 0.41666666
      value: {fileID: 21300000, guid: 797856abe69d0e142acbd72832389045, type: 3}
    - time: 0.5
      value: {fileID: 21300000, guid: 1952258e4cb4a0f4cab0ddc4e8f2eb4d, type: 3}
    - time: 0.5833333
      value: {fileID: 21300000, guid: ae89ee790e9349742aef8622317948c8, type: 3}
    attribute: m_Sprite
    path: 
    classID: 212
    script: {fileID: 0}
  m_SampleRate: 12
  m_WrapMode: 0
  m_Bounds:
    m_Center: {x: 0, y: 0, z: 0}
    m_Extent: {x: 0, y: 0, z: 0}
  m_ClipBindingConstant:
    genericBindings:
    - serializedVersion: 2
      path: 0
      attribute: 0
      script: {fileID: 0}
      typeID: 212
      customType: 23
      isPPtrCurve: 1
    pptrCurveMapping:
    - {fileID: 21300000, guid: 3994923cc5877a543aee7526eaf6490a, type: 3}
    - {fileID: 21300000, guid: 80839622e91793543b45f6abd956377e, type: 3}
    - {fileID: 21300000, guid: d9a1abbd73b76a040b19a4b159ad9a05, type: 3}
    - {fileID: 21300000, guid: 09870eb03f858414fa29da62b08c840a, type: 3}
    - {fileID: 21300000, guid: 9d740935d552d3c468535e94b8391452, type: 3}
    - {fileID: 21300000, guid: 797856abe69d0e142acbd72832389045, type: 3}
    - {fileID: 21300000, guid: 1952258e4cb4a0f4cab0ddc4e8f2eb4d, type: 3}
    - {fileID: 21300000, guid: ae89ee790e9349742aef8622317948c8, type: 3}
  m_AnimationClipSettings:
    serializedVersion: 2
    m_AdditiveReferencePoseClip: {fileID: 0}
    m_AdditiveReferencePoseTime: 0
    m_StartTime: 0
    m_StopTime: 0.6666666
    m_OrientationOffsetY: 0
    m_Level: 0
    m_CycleOffset: 0
    m_HasAdditiveReferencePose: 0
    m_LoopTime: 1
    m_LoopBlend: 0
    m_LoopBlendOrientation: 0
    m_LoopBlendPositionY: 0
    m_LoopBlendPositionXZ: 0
    m_KeepOriginalOrientation: 0
    m_KeepOriginalPositionY: 1
    m_KeepOriginalPositionXZ: 0
    m_HeightFromFeet: 0
    m_Mirror: 0
  m_EditorCurves: []
  m_EulerEditorCurves: []
  m_HasGenericRootTransform: 0
  m_HasMotionFloatCurves: 0
  m_Events: []
