%YAML 1.1
%TAG !u! tag:unity3d.com,2011:
--- !u!74 &7400000
AnimationClip:
  m_ObjectHideFlags: 0
  m_CorrespondingSourceObject: {fileID: 0}
  m_PrefabInstance: {fileID: 0}
  m_PrefabAsset: {fileID: 0}
  m_Name: Walk
  serializedVersion: 6
  m_Legacy: 0
  m_Compressed: 0
  m_UseHighQualityCurve: 1
  m_RotationCurves: []
  m_CompressedRotationCurves: []
  m_EulerCurves: []
  m_PositionCurves: []
  m_ScaleCurves: []
  m_FloatCurves: []
  m_PPtrCurves:
  - curve:
    - time: 0
      value: {fileID: 21300000, guid: 8a5727313b1289f45a28e7c477075582, type: 3}
    - time: 0.083333336
      value: {fileID: 21300000, guid: d67787f5c6c292d4589770026612a4b0, type: 3}
    - time: 0.16666667
      value: {fileID: 21300000, guid: c68006566bfa1724f8bd894b52bfea26, type: 3}
    - time: 0.25
      value: {fileID: 21300000, guid: 062df933c20be6a4ebac75b05cc7a133, type: 3}
    - time: 0.33333334
      value: {fileID: 21300000, guid: beefec32fdb8f834ea72ba341b0da437, type: 3}
    - time: 0.41666666
      value: {fileID: 21300000, guid: bb58b7b97b5e6f24eab72909bc2c1243, type: 3}
    - time: 0.5
      value: {fileID: 21300000, guid: 7bc734ee15617034a83c53a7031e0b18, type: 3}
    - time: 0.5833333
      value: {fileID: 21300000, guid: 0486ddb732ec8e54eb405a5e7979491d, type: 3}
    - time: 0.6666667
      value: {fileID: 21300000, guid: 3f94b575fef471149b7a714a1e94f6ba, type: 3}
    - time: 0.75
      value: {fileID: 21300000, guid: 02859955aa10574468ec6c362a30ae48, type: 3}
    attribute: m_Sprite
    path: 
    classID: 212
    script: {fileID: 0}
  m_SampleRate: 12
  m_WrapMode: 0
  m_Bounds:
    m_Center: {x: 0, y: 0, z: 0}
    m_Extent: {x: 0, y: 0, z: 0}
  m_ClipBindingConstant:
    genericBindings:
    - serializedVersion: 2
      path: 0
      attribute: 0
      script: {fileID: 0}
      typeID: 212
      customType: 23
      isPPtrCurve: 1
    pptrCurveMapping:
    - {fileID: 21300000, guid: 8a5727313b1289f45a28e7c477075582, type: 3}
    - {fileID: 21300000, guid: d67787f5c6c292d4589770026612a4b0, type: 3}
    - {fileID: 21300000, guid: c68006566bfa1724f8bd894b52bfea26, type: 3}
    - {fileID: 21300000, guid: 062df933c20be6a4ebac75b05cc7a133, type: 3}
    - {fileID: 21300000, guid: beefec32fdb8f834ea72ba341b0da437, type: 3}
    - {fileID: 21300000, guid: bb58b7b97b5e6f24eab72909bc2c1243, type: 3}
    - {fileID: 21300000, guid: 7bc734ee15617034a83c53a7031e0b18, type: 3}
    - {fileID: 21300000, guid: 0486ddb732ec8e54eb405a5e7979491d, type: 3}
    - {fileID: 21300000, guid: 3f94b575fef471149b7a714a1e94f6ba, type: 3}
    - {fileID: 21300000, guid: 02859955aa10574468ec6c362a30ae48, type: 3}
  m_AnimationClipSettings:
    serializedVersion: 2
    m_AdditiveReferencePoseClip: {fileID: 0}
    m_AdditiveReferencePoseTime: 0
    m_StartTime: 0
    m_StopTime: 0.8333333
    m_OrientationOffsetY: 0
    m_Level: 0
    m_CycleOffset: 0
    m_HasAdditiveReferencePose: 0
    m_LoopTime: 1
    m_LoopBlend: 0
    m_LoopBlendOrientation: 0
    m_LoopBlendPositionY: 0
    m_LoopBlendPositionXZ: 0
    m_KeepOriginalOrientation: 0
    m_KeepOriginalPositionY: 1
    m_KeepOriginalPositionXZ: 0
    m_HeightFromFeet: 0
    m_Mirror: 0
  m_EditorCurves: []
  m_EulerEditorCurves: []
  m_HasGenericRootTransform: 0
  m_HasMotionFloatCurves: 0
  m_Events: []
