%YAML 1.1
%TAG !u! tag:unity3d.com,2011:
--- !u!61 &1099820412
BoxCollider2D:
  m_ObjectHideFlags: 0
  m_CorrespondingSourceObject: {fileID: 0}
  m_PrefabInstance: {fileID: 0}
  m_PrefabAsset: {fileID: 0}
  m_GameObject: {fileID: 1495101584035044515}
  m_Enabled: 1
  m_Density: 1
  m_Material: {fileID: 0}
  m_IsTrigger: 0
  m_UsedByEffector: 0
  m_UsedByComposite: 0
  m_Offset: {x: 0, y: -4}
  m_SpriteTilingProperty:
    border: {x: 0, y: 0, z: 0, w: 0}
    pivot: {x: 0, y: 0}
    oldSize: {x: 0, y: 0}
    newSize: {x: 0, y: 0}
    adaptiveTilingThreshold: 0
    drawMode: 0
    adaptiveTiling: 0
  m_AutoTiling: 0
  serializedVersion: 2
  m_Size: {x: 4, y: 8}
  m_EdgeRadius: 0
--- !u!1001 &4004277595632820279
PrefabInstance:
  m_ObjectHideFlags: 0
  serializedVersion: 2
  m_Modification:
    m_TransformParent: {fileID: 0}
    m_Modifications:
    - target: {fileID: -927199367670048503, guid: 89d5087e838f1484f92d48128e5ab220,
        type: 3}
      propertyPath: m_Name
      value: SciFiTile0
      objectReference: {fileID: 0}
    - target: {fileID: -927199367670048503, guid: 89d5087e838f1484f92d48128e5ab220,
        type: 3}
      propertyPath: m_Layer
      value: 9
      objectReference: {fileID: 0}
    - target: {fileID: -4216859302048453862, guid: 89d5087e838f1484f92d48128e5ab220,
        type: 3}
      propertyPath: m_LocalPosition.x
      value: -2.98
      objectReference: {fileID: 0}
    - target: {fileID: -4216859302048453862, guid: 89d5087e838f1484f92d48128e5ab220,
        type: 3}
      propertyPath: m_LocalPosition.y
      value: -2
      objectReference: {fileID: 0}
    - target: {fileID: -4216859302048453862, guid: 89d5087e838f1484f92d48128e5ab220,
        type: 3}
      propertyPath: m_LocalPosition.z
      value: 0
      objectReference: {fileID: 0}
    - target: {fileID: -4216859302048453862, guid: 89d5087e838f1484f92d48128e5ab220,
        type: 3}
      propertyPath: m_LocalRotation.x
      value: 0
      objectReference: {fileID: 0}
    - target: {fileID: -4216859302048453862, guid: 89d5087e838f1484f92d48128e5ab220,
        type: 3}
      propertyPath: m_LocalRotation.y
      value: -0
      objectReference: {fileID: 0}
    - target: {fileID: -4216859302048453862, guid: 89d5087e838f1484f92d48128e5ab220,
        type: 3}
      propertyPath: m_LocalRotation.z
      value: -0
      objectReference: {fileID: 0}
    - target: {fileID: -4216859302048453862, guid: 89d5087e838f1484f92d48128e5ab220,
        type: 3}
      propertyPath: m_LocalRotation.w
      value: 1
      objectReference: {fileID: 0}
    - target: {fileID: -4216859302048453862, guid: 89d5087e838f1484f92d48128e5ab220,
        type: 3}
      propertyPath: m_RootOrder
      value: 0
      objectReference: {fileID: 0}
    - target: {fileID: -4216859302048453862, guid: 89d5087e838f1484f92d48128e5ab220,
        type: 3}
      propertyPath: m_LocalEulerAnglesHint.x
      value: 0
      objectReference: {fileID: 0}
    - target: {fileID: -4216859302048453862, guid: 89d5087e838f1484f92d48128e5ab220,
        type: 3}
      propertyPath: m_LocalEulerAnglesHint.y
      value: 0
      objectReference: {fileID: 0}
    - target: {fileID: -4216859302048453862, guid: 89d5087e838f1484f92d48128e5ab220,
        type: 3}
      propertyPath: m_LocalEulerAnglesHint.z
      value: 0
      objectReference: {fileID: 0}
    - target: {fileID: 2534866581884222612, guid: 89d5087e838f1484f92d48128e5ab220,
        type: 3}
      propertyPath: m_Layer
      value: 9
      objectReference: {fileID: 0}
    m_RemovedComponents: []
  m_SourcePrefab: {fileID: 100100000, guid: 89d5087e838f1484f92d48128e5ab220, type: 3}
--- !u!1 &1495101584035044515 stripped
GameObject:
  m_CorrespondingSourceObject: {fileID: 2534866581884222612, guid: 89d5087e838f1484f92d48128e5ab220,
    type: 3}
  m_PrefabInstance: {fileID: 4004277595632820279}
  m_PrefabAsset: {fileID: 0}
